{  
   "fullName":[  
      {  
         "FULLNAME":"Bill Gates"
      }
   ],
   "positions":[  
      {  
         "ORGNAME":"Bill & Melinda Gates Foundation",
         "TITLE":"Co-chair"
      },
      {  
         "ORGNAME":"Microsoft",
         "TITLE":"Co-founder"
      }
   ],
   "photos":[  
      {  
         "url":"https://d2ojpxxtu63wzl.cloudfront.net/static/51f569a9829831fea5beb709624d2c9f_69103f077c7be3e8e0a98202bcf3b11687738e05f1704e2b3217496ae3bc6eed",
         "typeId":"facebook",
         "typeName":"Facebook"
      }
   ],
   "websites":[  
      {  
         "url":"https://www.gatesfoundation.org/"
      }
   ],
   "demographics":[  
      {  
         "location":"San Francisco, CA, United States of America",
         "city":"San Francisco",
         "city_code":"SF",
         "state":"California",
         "state_code":"CA",
         "country":"United States",
         "country_code":"US",
         "continent":"North America",
         "county":"San Francisco",
         "age":"64",
         "gender":"Male",
         "ageRange":"60-70"
      }
   ],
   "social_profiles":[  
      {  
         "social_profile":"linkedin",
         "url":"https://www.linkedin.com/in/williamhgates"
      },
      {  
         "social_profile":"foursquare",
         "url":"https://foursquare.com/user/118807315"
      },
      {  
         "social_profile":"angellist",
         "url":"https://angel.co/kd"
      }
   ],
   "sourcesfound":[  
      {  
         "SOURCENAME":null
      }
   ],
   "workHistory":[  
      {  
         "TITLE":"Co-chair",
         "STARTDATE":"2000",
         "ORGNAME":"Bill & Melinda Gates Foundation"
      },
      {  
         "TITLE":"Co-founder",
         "STARTDATE":"1975",
         "ORGNAME":"Microsoft"
      }
   ],
   "sourcesCount":{  
      "SOURCES":1
   }
}