{"objects": [{"Source": "National Employment Law Project", "DataOrder": "1", "SourceLink": "http://www.nelp.org/", "Data": "12.29.2012", "Title": "The last day anyone will receive benefits from the Emergency Unemployment Compensation program unless Congress acts to renew it."}, {"Source": "Congressional Budget Office", "DataOrder": "2", "SourceLink": "", "Data": "$30,000,000,000", "Title": "Estimated cost to renew the Emergency Unemployment Compensation program through the end of 2013."}, {"Source": "National Employment Law Project", "DataOrder": "3", "SourceLink": "http://www.nelp.org/", "Data": "400,000", "Title": "Estimated number of Californians receiving benefits from the Emergency Unemployment Compensation program, which is set to expire Jan. 2."}, {"Source": "National Employment Law Project", "DataOrder": "4", "SourceLink": "http://www.nelp.org/", "Data": "2,100,000", "Title": "Estimated number of Americans receiving benefits under the Emergency Unemployment Compensation program that would lose their unemployment benefits come January if Congress doesn’t act."}, {"Source": "National Employment Law Project", "DataOrder": "5", "SourceLink": "http://www.nelp.org/", "Data": "940,000", "Title": "Estimated number of Americans whose state unemployment benefits will end in the first quarter of 2013, and would be eligible for benefits under the Emergency Unemployment Compensation program."}, {"Source": "National Employment Law Project", "DataOrder": "6", "SourceLink": "http://www.nelp.org/", "Data": "February 2012", "Title": "The date when the Emergency Unemployment Compensation program was last renewed by Congress."}, {"Source": "U.S. Department of Labor", "DataOrder": "7", "SourceLink": "http://www.ows.doleta.gov/unemploy/supp_act.asp", "Data": "June 30, 2008", "Title": "The date the Emergency Unemployment Compensation program was created."}, {"Source": "National Employment Law Project", "DataOrder": "8", "SourceLink": "http://www.nelp.org/", "Data": "10", "Title": "The number of times Congress has renewed the Emergency Unemployment Compensation program since it was first created in the summer of 2008."}, {"Source": "National Employment Law Project", "DataOrder": "9", "SourceLink": "http://www.nelp.org/", "Data": "37 percent", "Title": "Estimated percent of Californians that have been unemployed more than a year since 2008, when the Emergency Unemployment Compensation program was created to help the long-term unemployed."}, {"Source": "National Employment Law Project", "DataOrder": "10", "SourceLink": "http://www.nelp.org/", "Data": "5,000,000", "Title": "Estimated number of Americans that have been without work for six months or longer"}, {"Source": "U.S. Department of Labor", "DataOrder": "11", "SourceLink": "http://workforcesecurity.doleta.gov/unemploy/docs/potential_weeks_map.pdf", "Data": "26 weeks", "Title": "Cap on unemployment benefits by the least generous states."}, {"Source": "National Employment Law Project", "DataOrder": "12", "SourceLink": "http://www.nelp.org/", "Data": "14 to 47 weeks", "Title": "The range of maximum benefits states offer, subsidized by the Emergency Unemployment Compensation program."}, {"Source": "U.S. Department of Labor", "DataOrder": "13", "SourceLink": "http://workforcesecurity.doleta.gov/unemploy/docs/potential_weeks_map.pdf", "Data": "73 weeks", "Title": "Maximum length of benefits for new claimants in California under the Emergency Unemployment Compensation program."}, {"Source": "Center on Budget & Policy Priorities", "DataOrder": "14", "SourceLink": "http://www.cbpp.org/cms/index.cfm?fa=view&id=3164", "Data": "Nine states", "Title": "Number of states with unemployment rates above 9 percent in which workers are eligible for up to 47 weeks of additional benefits under the Emergency Unemployment Compensation program."}, {"Source": "U.S. Department of Labor", "DataOrder": "15", "SourceLink": "http://www.nelp.org/", "Data": "$40,000,000,000", "Title": "Estimated amount of money brought into the state of California by those receiving benefits from the Emergency Unemployment Compensation program since it began in July 2008."}]}


{"url": "image.png", "type": "image"}
